\relax 
\@writefile{lof}{\contentsline {figure}{\numberline {1}{\ignorespaces Simulation screenshot for Listing\nobreakspace  {}1\hbox {}.}}{1}\protected@file@percent }
\newlabel{fig:sim}{{1}{1}}
\newlabel{lst:asmnofwd}{{1}{1}}
\@writefile{lol}{\contentsline {lstlisting}{\numberline {1}Assembler example without forwarding}{1}\protected@file@percent }
